73 264 271 262
141 130 1 176
244 311 170 17
148 247 309 99
91 281 15 110
289 138 243 250
133 293 76 150
277 107 98 192
171 142 208 184
290 197 120 137
77 61 68 149
50 227 26 183
305 126 228 46
305 37 56 181
42 96 94 66
187 143 216 181
59 155 19 179
200 107 167 108
291 236 316 56
72 179 174 66
296 255 313 196
27 179 143 53
256 258 53 191
225 178 286 169
217 60 130 262
88 125 4 187
240 297 236 56
154 2 213 98
18 56 76 159
2 99 231 155
161 279 36 229
10 150 190 196
134 43 238 124
283 196 292 162
177 72 168 21
137 186 78 208
73 227 243 231
173 164 172 224
35 101 12 259
189 234 24 271
141 77 100 245
304 290 230 5
13 192 51 295
284 278 42 28
258 146 264 160
276 132 283 99
192 286 133 63
174 251 243 182
66 105 236 104
242 45 172 174
265 182 262 21
45 169 125 174
157 312 260 128
92 186 199 255
91 316 184 29
137 11 308 266
183 241 103 156
109 80 266 203
247 251 212 139
4 79 292 237
104 228 215 177
183 199 219 267
316 242 140 226
217 239 317 73
150 258 319 195
23 25 12 107
88 98 160 240
59 202 120 82
19 302 105 219
31 205 137 20
262 169 58 62
149 259 152 195
72 81 5 196
49 5 115 254
301 81 67 317
212 202 74 180
224 172 18 121
135 65 234 216
114 179 167 262
290 148 237 110
248 311 217 12
189 191 255 94
147 294 276 44
171 288 132 256
281 168 160 22
263 137 144 166
88 37 319 98
277 202 274 193
23 301 220 168
291 62 297 22
179 299 59 35
62 127 247 21
265 189 12 181
260 269 41 153
6 72 192 71
188 70 169 295
32 274 306 44
267 291 255 14
40 186 93 137
84 175 249 193
247 282 187 126
317 123 124 148
218 33 213 95
283 118 176 279
64 86 270 204
205 227 291 309
103 40 167 202
3 13 259 322
261 202 195 246
158 304 66 248
151 232 202 4
12 149 258 229
137 284 85 168
185 71 236 16
26 258 58 22
281 219 40 143
135 178 148 113
205 62 47 278
77 278 125 316
140 171 90 251
141 302 37 144
6 196 19 188
195 157 244 105
18 144 153 33
48 20 192 256
192 290 202 51
233 135 262 114
126 112 289 15
31 202 14 131
59 10 99 14
292 293 138 81
245 315 9 256
147 16 3 242
234 256 69 29
312 224 303 107
36 278 18 106
307 109 209 36
17 275 271 160
166 110 206 195
290 91 253 157
36 82 17 51
57 70 240 164
28 280 161 268
105 14 31 308
270 247 78 258
96 5 273 129
303 321 108 253
126 84 143 301
296 294 33 47
129 76 229 174
165 41 119 167
253 226 241 234
303 230 40 112
17 169 262 264
301 239 1 292
221 202 170 118
173 192 301 240
81 293 294 144
295 154 186 9
169 43 76 146
221 127 208 296
127 137 302 143
187 167 186 90
108 105 209 71
213 142 216 153
185 236 268 39
196 108 283 25
205 312 249 310
270 81 156 73
42 300 8 5
284 111 34 37
127 62 51 181
295 123 101 126
281 48 171 218
55 305 228 73
146 169 281 237
3 286 270 121
180 282 101 291
56 240 250 225
30 191 282 92
142 225 236 175
106 162 272 121
76 29 264 197
274 178 42 214
158 24 206 317
61 283 316 113
193 210 196 31
3 131 252 69
231 5 315 31
173 207 269 15
67 8 246 107
309 193 57 305
176 84 70 75
200 297 118 127
85 90 257 4
155 194 297 75
256 221 196 105
105 311 261 103
246 53 286 265
59 254 18 245
298 24 275 255
127 138 67 257
299 295 69 40
39 71 92 192
286 231 235 264
143 31 173 229
104 195 68 321
21 4 153 157
304 120 278 248
296 309 61 322
136 20 236 288
230 132 170 212
175 42 204 57
302 52 107 245
313 318 3 49
65 21 295 44
91 61 169 233
86 168 65 93
297 152 137 70
14 236 268 114
237 157 250 315
313 268 90 52
36 241 306 229
188 277 20 300
123 75 154 119
253 126 108 76
29 51 90 263
253 275 152 304
17 95 208 292
185 75 165 246
179 221 52 311
273 162 35 12
255 233 247 65
44 55 72 315
194 203 263 291
239 130 136 289
110 297 301 114
227 154 273 214
256 35 267 97
274 244 36 153
249 196 123 140
99 46 31 263
86 273 248 12
221 275 12 13
119 61 136 100
38 322 47 107
172 215 63 103
16 99 177 211
132 215 322 72
58 318 141 204
252 106 78 279
2 185 90 245
257 287 110 167
137 172 29 223
91 49 230 215
153 89 246 186
309 3 60 22
45 150 94 180
40 210 192 59
58 322 231 312
246 80 175 303
316 191 51 248
167 12 225 34
198 55 44 80
39 64 203 195
303 269 227 158
20 293 197 101
67 274 207 314
153 182 65 217
133 254 268 209
219 227 181 145
78 242 215 143
121 19 249 248
225 309 78 131
294 219 178 73
17 155 174 112
161 77 126 210
311 197 137 292
283 158 290 303
244 205 174 287
252 20 29 297
66 271 245 232
218 238 14 219
68 284 200 231
300 43 209 317
64 181 36 234
30 223 96 73
16 217 274 190
96 251 37 67
36 140 165 207
291 112 66 108
41 290 252 226
236 278 187 183
179 46 185 168
238 36 213 134
289 241 157 4
227 37 40 287
296 212 226 53
224 160 300 294
15 301 153 295
56 73 208 276
149 147 47 130
93 79 147 106
114 135 73 155
52 132 241 137
319 79 5 193
185 128 151 195
57 48 274 300
238 16 194 317
282 104 71 278
50 199 253 177
227 24 267 64
162 144 320 148
100 64 27 230
280 205 97 117
66 69 30 268
43 309 237 55
279 184 280 196
148 39 151 75
139 15 93 147
165 257 119 177
98 214 89 154
236 293 105 288
189 229 119 321
40 82 19 248
210 219 169 241
284 15 217 31
318 267 175 135
84 37 289 234
281 256 256 126
306 100 145 216
101 215 172 38
93 110 175 263
305 279 103 297
209 216 234 235
201 82 9 281
148 282 237 210
8 209 150 3
14 6 69 316
98 33 92 168
204 249 202 308
83 35 90 284
140 148 109 7
226 128 138 103
