264 184 306 32
105 318 251 55
316 36 13 310
93 267 68 312
109 54 83 161
199 216 85 241
318 30 264 242
238 235 72 233
152 152 89 299
273 49 266 231
260 238 84 250
53 46 210 268
147 288 212 263
6 117 155 166
154 212 73 305
305 112 136 281
280 133 111 213
176 181 19 6
157 109 302 185
201 125 157 205
69 259 282 195
164 229 79 36
29 52 140 8
251 269 162 181
293 146 320 111
158 50 212 300
286 300 126 277
121 66 149 11
74 76 145 56
186 162 165 299
111 199 264 268
268 87 87 157
56 316 148 318
191 42 48 102
113 160 204 289
176 59 132 129
244 19 163 304
128 229 74 54
65 10 274 28
99 284 287 289
91 213 158 116
305 277 25 22
242 126 141 65
317 54 184 215
23 28 12 242
79 314 32 76
204 7 81 20
207 162 311 205
313 216 50 235
207 67 94 148
253 46 12 302
50 298 106 82
188 127 304 17
24 67 135 15
17 242 225 241
217 110 207 126
297 6 30 8
220 298 169 206
71 254 102 217
112 180 298 7
218 37 244 61
32 232 172 142
22 141 300 196
277 206 278 191
7 25 247 99
104 256 190 43
276 319 226 147
204 188 14 125
295 186 208 94
215 277 209 320
162 45 278 84
218 168 146 153
187 183 285 199
317 267 207 244
213 223 186 255
35 268 107 304
118 290 94 146
228 209 263 176
22 88 146 289
234 126 128 177
38 270 112 131
71 72 252 242
219 250 3 287
215 33 6 303
152 259 190 286
1 268 35 13
174 27 121 114
192 279 224 176
202 304 225 187
99 291 215 211
252 185 169 33
133 81 168 277
273 254 247 144
223 298 261 178
44 179 286 28
200 273 83 16
171 8 142 137
190 316 116 37
167 132 304 82
106 108 239 44
96 170 129 292
60 290 124 206
129 40 146 130
140 132 74 105
16 95 137 236
15 67 253 178
293 94 207 27
112 273 13 194
99 57 16 271
207 31 85 58
310 41 225 15
193 321 108 168
170 183 115 156
220 28 235 165
40 43 45 164
309 82 118 30
273 68 277 306
220 116 23 69
210 40 24 149
234 270 55 212
139 272 104 7
83 205 29 171
66 311 233 232
127 242 127 199
318 230 243 37
226 179 108 276
71 61 129 133
39 151 3 46
239 2 159 209
183 5 138 302
279 32 128 146
159 39 255 155
135 217 316 50
38 239 308 293
207 66 317 224
101 57 160 115
322 167 206 9
54 261 227 225
132 316 1 296
110 241 290 170
139 73 91 135
91 186 228 297
296 256 62 86
320 217 8 300
284 321 37 274
115 264 45 75
38 208 64 213
175 153 264 256
135 268 82 152
21 94 168 19
36 199 255 178
319 203 20 252
217 294 72 276
250 269 234 278
27 214 268 77
292 195 169 151
204 75 297 283
25 235 69 200
75 145 322 226
52 32 44 50
93 306 34 146
202 72 101 198
10 21 220 15
14 70 185 143
266 56 292 36
256 126 110 159
182 12 157 255
87 187 182 214
137 155 85 185
81 171 282 129
156 165 297 134
100 210 155 70
316 104 245 59
120 154 56 59
262 160 129 225
129 199 64 260
82 56 221 233
130 111 83 20
235 256 245 32
84 72 289 208
67 258 322 274
168 39 135 124
70 295 187 275
283 313 172 7
260 232 186 243
106 279 297 98
246 285 242 205
7 226 263 2
263 52 255 228
135 123 63 246
102 131 122 149
169 34 320 86
140 299 305 183
7 143 272 39
85 10 315 6
25 266 79 92
47 95 133 220
245 141 123 227
74 113 169 156
163 132 11 57
51 28 13 275
171 169 61 182
106 80 218 104
266 194 60 12
247 163 71 36
89 320 69 241
311 227 262 11
252 54 150 167
197 56 81 209
27 15 108 218
258 303 95 314
314 161 274 128
248 203 217 54
93 65 3 79
159 299 38 240
292 110 74 268
196 37 233 277
43 98 265 109
84 37 145 268
114 20 5 234
204 274 248 223
149 116 35 66
309 286 46 150
184 28 279 115
105 146 143 223
125 270 103 48
167 133 225 272
19 264 139 127
156 176 207 30
272 163 93 89
177 59 67 240
115 292 286 88
285 106 274 152
178 81 89 91
196 231 225 145
194 55 105 243
129 26 95 231
85 268 200 295
1 232 177 104
237 269 295 169
195 100 185 270
124 127 232 319
45 291 159 82
17 11 223 185
308 87 38 228
318 183 158 44
267 226 189 307
72 23 4 31
22 231 108 280
208 133 186 121
101 62 246 92
215 76 121 227
206 130 183 272
4 259 289 100
225 60 155 255
138 75 177 150
282 32 190 68
71 311 308 287
235 227 95 222
183 25 2 194
116 153 270 185
275 93 269 201
48 209 100 86
202 278 7 147
19 198 117 316
156 278 128 245
184 115 75 196
150 122 236 300
266 79 43 27
19 125 73 132
2 192 65 99
270 102 295 257
147 262 221 6
144 255 150 312
310 94 76 21
139 315 13 90
241 4 71 8
179 304 205 6
198 168 19 17
212 267 291 233
74 320 189 180
108 307 255 151
111 165 248 286
31 262 209 6
271 195 27 49
137 243 16 263
194 124 147 280
131 252 197 312
263 24 53 53
202 286 311 24
119 266 17 252
188 303 246 300
125 309 149 154
178 87 105 177
38 206 169 30
228 139 34 56
96 101 93 321
47 40 148 109
243 161 59 80
250 73 223 234
81 232 272 282
281 125 165 79
236 268 96 186
28 223 62 221
11 154 315 22
78 138 56 116
139 218 74 73
165 57 152 178
36 186 196 108
133 43 322 72
133 296 107 199
7 281 84 296
102 125 39 275
191 247 227 307
105 125 81 26
210 2 306 302
254 153 199 72
220 292 163 176
141 180 276 204
205 212 170 225
32 65 136 270
83 268 11 231
233 314 48 294
253 264 266 154
25 97 82 274
287 112 23 45
72 187 211 8
322 168 200 18
28 31 308 82
29 210 153 84
198 169 312 252
137 113 283 217
319 274 97 80
321 101 6 222
170 303 296 58
239 11 42 228
135 256 70 196
176 318 242 175
285 16 38 42
139 310 289 81
118 43 186 271
34 37 65 41
13 55 126 260
246 20 142 305
