121 61 213 173
44 225 280 197
145 53 99 274
153 314 44 130
133 319 134 104
196 177 191 283
195 117 162 188
246 230 66 133
187 269 200 294
284 131 177 48
154 212 221 252
11 208 285 274
210 232 33 124
75 46 146 278
204 252 116 90
315 216 247 256
227 92 318 227
174 151 29 227
273 13 173 29
140 248 34 79
131 19 321 263
39 228 22 242
108 320 210 144
202 221 51 38
196 15 288 181
91 20 240 77
29 57 260 155
29 294 295 91
240 170 138 72
203 71 272 193
30 238 30 104
67 255 83 297
222 158 179 135
92 100 47 214
173 63 227 80
209 256 27 18
278 132 322 87
150 200 172 255
205 311 319 65
202 85 106 131
39 236 79 284
196 313 178 309
189 63 128 297
101 86 238 259
227 11 213 141
52 68 157 212
22 318 257 169
314 31 239 293
305 101 244 318
75 246 143 172
299 100 214 238
173 150 158 250
159 182 167 38
300 30 142 44
221 283 262 54
265 142 49 55
294 259 30 168
2 200 76 237
211 235 229 169
78 37 101 41
24 118 149 203
22 193 182 81
259 310 256 35
145 216 198 15
44 26 241 138
260 101 263 99
31 175 181 111
46 26 167 200
209 53 62 62
107 101 205 305
131 37 115 96
319 69 148 81
306 165 64 52
291 241 104 235
35 9 36 63
77 111 260 268
230 289 179 104
33 163 74 267
231 163 38 84
309 36 318 83
206 210 32 91
275 306 110 245
27 162 174 316
119 298 157 167
215 98 192 306
146 246 289 286
271 252 304 311
124 83 36 290
107 234 249 137
105 293 18 109
74 157 29 99
191 202 27 276
63 145 200 80
23 11 21 227
106 139 178 120
227 311 19 252
259 271 17 322
193 116 264 120
61 314 47 76
20 19 2 81
300 159 178 91
51 149 77 241
290 199 293 312
47 279 294 307
262 87 90 29
102 39 193 28
177 286 53 27
76 190 46 281
63 233 300 258
132 23 103 133
204 275 279 87
50 216 155 251
204 236 87 142
109 167 300 166
191 158 77 202
113 117 299 280
7 111 89 44
75 211 154 114
270 111 232 192
315 259 7 4
167 290 42 287
144 99 66 167
112 309 287 45
249 293 298 215
282 285 312 150
252 211 71 125
124 80 141 143
194 97 5 244
219 240 146 150
171 92 119 274
133 30 80 223
136 62 121 215
235 10 47 116
278 187 211 168
71 147 41 288
297 126 33 253
127 205 55 161
58 175 15 152
145 297 156 219
177 295 319 186
35 47 58 315
195 133 256 24
157 240 232 212
174 146 284 57
6 206 310 94
119 101 219 172
181 287 173 162
66 146 66 184
179 254 66 81
209 6 87 120
291 225 241 147
302 235 74 140
189 295 223 240
278 131 221 44
73 311 36 214
195 151 7 133
17 283 18 99
207 5 159 257
95 204 120 49
247 253 230 38
131 141 96 68
299 183 160 48
225 275 113 262
223 141 214 170
238 155 301 131
214 260 264 135
258 88 173 70
144 123 104 272
250 306 236 40
259 97 320 312
284 73 122 138
255 125 315 110
3 35 101 197
4 251 172 237
246 85 128 267
237 175 283 265
233 286 176 158
194 53 156 129
204 198 92 207
251 68 234 239
111 145 197 245
65 202 122 112
266 91 206 279
181 282 60 322
61 166 49 146
113 11 165 235
138 242 18 239
86 220 106 131
265 91 202 92
45 303 168 39
126 11 266 127
187 168 41 140
56 198 225 75
160 70 223 192
264 289 155 13
218 59 313 144
219 218 37 227
25 173 83 21
287 312 245 4
84 286 173 320
195 230 159 204
287 103 25 236
26 248 238 118
63 96 146 120
74 39 74 157
291 106 152 135
32 282 165 298
267 322 146 274
24 100 189 10
221 271 318 114
147 11 38 147
3 13 71 264
279 220 61 84
145 53 14 213
116 291 142 254
176 138 2 164
303 288 280 227
270 298 277 20
231 67 30 303
210 9 193 181
301 219 4 24
102 58 214 19
75 196 41 223
149 191 17 58
237 1 307 303
234 258 149 81
60 96 41 270
104 97 42 215
179 36 160 114
60 96 248 294
165 271 90 163
182 55 283 181
237 73 20 87
38 16 154 95
3 73 227 86
73 232 271 124
183 312 15 120
108 121 76 217
124 188 145 230
114 284 29 115
297 257 239 190
186 216 117 109
273 296 148 304
166 154 156 286
125 153 83 312
284 109 154 185
176 314 294 52
256 41 142 48
198 105 148 239
217 176 187 153
138 41 19 101
182 76 213 120
240 126 171 300
66 205 256 38
104 310 148 62
7 121 216 58
7 205 278 314
109 249 166 12
53 174 285 146
315 301 138 221
314 98 300 58
75 17 24 232
136 181 183 170
127 227 156 36
186 83 90 123
213 155 153 198
224 234 115 316
248 178 173 55
116 76 127 48
236 211 233 18
8 158 119 216
131 200 170 224
34 113 292 65
113 74 246 145
285 183 79 156
194 218 246 283
274 101 10 66
65 257 125 242
41 152 213 104
78 319 97 30
209 5 283 93
76 163 103 97
90 136 217 209
143 249 293 282
265 42 72 194
281 25 258 306
184 81 102 185
321 268 20 168
267 109 209 171
203 56 167 174
281 219 266 119
179 142 167 219
39 95 186 241
308 239 69 203
112 288 57 117
159 75 83 1
106 232 43 216
26 273 1 173
85 72 34 191
38 259 27 152
68 274 34 209
212 33 24 181
178 110 99 113
66 175 60 21
210 20 317 178
56 94 202 257
54 212 18 180
43 118 162 117
294 230 264 301
301 248 132 3
245 243 300 136
287 71 303 125
128 255 102 248
281 226 243 13
191 23 250 50
261 94 163 6
276 160 199 250
208 22 7 165
209 207 145 179
91 136 213 205
38 278 98 23
268 264 176 11
267 150 184 232
28 268 201 91
114 152 160 140
232 282 241 267
220 202 71 125
32 224 1 169
206 77 76 314
92 106 233 24
193 110 131 203
52 111 310 183
317 213 290 68
245 6 155 114
256 127 278 102
93 213 196 66
289 55 267 110
134 243 11 208
286 275 205 81
1 193 130 85
308 126 223 49
52 150 283 145
319 191 219 69
257 61 143 186
